<?xml version="1.0" encoding="UTF-8" standalone="yes"?>
<!DOCTYPE svg PUBLIC "-//W3C//DTD SVG 1.1//EN" "http://www.w3.org/Graphics/SVG/1.1/DTD/svg11.dtd">

<svg xmlns="http://www.w3.org/2000/svg" xmlns:xlink="http://www.w3.org/1999/xlink" width="200" height="200">

<circle cx="100" cy="100" r="100" fill="#704B1C"/>
<circle cx="100" cy="100" r="87.5" fill="#FFFFFF"/>

<path id="7" fill="#704B1C" d="M100,100 m 38.4 -33.58 l 0 -17.18 l -73.8 0 l 0 17.63 l 51.23 0 l -25.68 47.81 c -9.27 17.22 -13 26.12 -13 40.08l 24.07 0 c 0 -16.6 14 -48.12 37.18 -88.34"/>

</svg>
